# Blender MTL File: 'Zombie.blend'
# Material Count: 1

newmtl Zombie
Ns 96.078431
Ka 1.000000 1.000000 1.000000
Kd 0.640000 0.640000 0.640000
Ks 0.000000 0.000000 0.000000
Ke 0.000000 0.000000 0.000000
Ni 1.000000
d 1.000000
illum 1
map_Kd /home/bkeys/Devel/Media/Blender/M1Z1/Zombie.000.png
